20

3
Winner
LoserA
LoserB
1 2 3
1 2 3
1 2 3
1 2 3
2 1 3
2 3 1

2
Loser
Winner
1 2
1 2
2 1
2 1
1 2
2 1
2 1

3
Dani
John
GlennW
3 2 1
3 2 1
1 2 3
1 2 3
2 3 1

6
aW
b
c
d
e
f
1 2 3 4 5 6

5
AnaW
Winston
Tracer
Genji
Lucio
5 4 1 2 3
4 5 1 2 3
1 2 3 4 5
1 2 3 4 5
2 1 3 4 5
2 1 3 4 5

3
GoogleW
Apple
FacebookW
1 2 3
1 2 3
3 2 1
3 2 1
3 2 1
2 1 3

2
LuxW
Ahri
1 2

2
IsabelleW
Tom NookW
1 2
2 1

2
Ricky
BobbyW
1 2
1 2
2 1
1 2
2 1
2 1
2 1
2 1

3
Freddy
Bonnie
ChicaW
3 2 1
3 2 1
1 2 3
1 2 3
2 3 1

6
Ketchup
MustardW
Mayo-naise
Relish
Onions
Honey Mustard
2 1 3 4 5 6

3
CSW
Business
Communication
1 2 3
1 2 3
3 1 2
2 1 3

2
IcyW
Hot
1 2
1 2
1 2

2
DVA
ReinhartW
2 1

3
KFCW
Churches
Pizza HutW
1 2 3
3 2 1
1 2 3
3 2 1
1 2 3
3 2 1
1 2 3
3 2 1

5
There
Are
TwoW
Many
Tests
3 1 2 4 5
1 2 3 4 5
3 1 2 5 4

4
JavaW
Python
C++
R
1 2 3 4
1 2 3 4
1 2 3 4
1 2 3 4
2 1 3 4
2 1 3 4
2 1 3 4
2 1 3 4
3 1 2 4
3 1 2 4
4 3 1 2

6
TomW
JerryW
LoserA
LoserB
LoserC
LoserD
1 2 3 4 5 6
1 2 3 4 5 6
2 1 3 4 5 6
2 1 3 4 5 6
5 1 2 3 4 6
6 2 1 3 4 5

3
Twice
Girls Gen
PsyW
3 2 1
3 2 1

3
Winner
LoserA
LoserC
1 3 2
1 3 2
2 3 1
2 3 1
3 1 2
