20

2
A
B
1 2
2 1
2 1

2
A
B
1 2
1 2
2 1
2 1

3
A
B
C
1 2 3
3 2 1
3 2 1

3
A
B
C
3 2 1
3 1 2
2 1 3
2 3 1

3
A
B
C
1 2 3
2 3 1
3 1 2
3 1 2
1 3 2
1 3 2
1 2 3

3
A
B
C
3 2 1
3 2 1
1 2 3
1 2 3

4
A
B
C
D
4 2 3 1
1 3 2 4
3 4 2 1
2 4 3 1
4 2 3 1

4
A
B
C
D
4 2 3 1
2 4 3 1
2 4 3 1
1 4 2 3
3 4 2 1
1 2 3 4
4 2 3 1
2 4 3 1
2 4 3 1

4
A
B
C
D
4 3 2 1
2 4 3 1
2 4 3 1
1 4 2 3
1 4 3 2
4 1 3 2
1 2 3 4
1 3 2 4

5
A
B
C
D
E
1 4 3 2 5
5 2 4 3 1
2 4 3 5 1
1 5 4 3 2
1 4 2 3 5
3 4 5 2 1
2 5 3 4 1
3 4 2 5 1

5
A
B
C
D
E
3 4 5 1 2
4 5 1 2 3
1 2 3 4 5
2 3 4 5 1
5 1 2 3 4
5 4 3 2 1
5 2 3 4 1
1 2 3 4 5

5
A
B
C
D
E
1 5 2 4 3
3 4 2 5 1
1 4 2 3 5
4 2 3 5 1
4 2 5 3 1
1 5 3 4 2

6
A
B
C
D
E
F
1 5 3 4 2 6
6 2 5 4 3 1
2 5 3 4 6 1
3 4 5 6 1 2
2 1 3 4 6 5
2 6 5 4 1 3

6
A
B
C
D
E
F
1 6 3 5 2 4
1 3 2 6 4 5
1 6 3 5 2 4
4 3 5 2 6 1
2 5 3 4 6 1
4 1 6 2 5 3
6 1 4 3 5 2

7
A
B
C
D
E
F
G
1 7 4 5 3 6 2
4 5 3 6 2 7 1
2 6 1 7 4 5 3
5 6 4 7 1 2 3
1 7 2 6 3 5 4
1 4 3 5 2 6 7

7
A
B
C
D
E
F
G
1 7 4 5 3 6 2
1 4 3 5 2 6 7
7 6 2 3 5 4 1
7 2 6 3 5 4 1
1 7 3 6 2 5 4
4 5 3 6 2 7 1
2 7 4 5 6 1 3

8
A
B
C
D
E
F
G
H
1 7 8 4 5 3 6 2
1 4 3 5 2 8 6 7
7 6 2 3 5 8 4 1
8 1 7 4 5 3 6 2
8 7 2 6 3 5 4 1
1 7 8 3 6 2 5 4
4 5 3 6 8 2 7 1
2 7 8 4 5 6 1 3
1 8 7 4 5 3 6 2
7 6 2 8 3 5 4 1

8
A
B
C
D
E
F
G
H
1 8 5 6 4 7 3 2
8 7 6 5 4 3 2 1
4 5 3 6 2 7 1 8
2 7 1 8 3 6 4 5

9
A
B
C
D
E
F
G
H
I
9 8 7 2 6 3 5 4 1
1 7 8 3 9 6 2 5 4
4 5 9 3 6 8 2 7 1
9 1 8 5 6 4 7 3 2
8 7 6 5 4 9 3 2 1
4 5 3 9 6 2 7 1 8
2 7 1 8 3 6 9 4 5
2 7 8 9 4 5 6 1 3
1 8 7 4 5 3 9 6 2
7 6 2 8 9 3 5 4 1

9
A
B
C
D
E
F
G
H
I
1 6 7 9 3 5 2 4 8
7 1 3 9 2 6 8 4 5
7 1 6 9 8 3 5 2 4
4 3 5 9 2 7 6 1 8
2 5 8 7 3 9 4 6 1
4 1 6 2 9 7 8 5 3
6 1 7 8 9 4 3 5 2
