20

3
Joselyn Rush
Zaniyah Lewis
Kasey Vaughan
1 3 2
2 1 3
3 2 1
3 1 2
3 2 1

7
Clinton Potter
Junior Martinez
Marc Phillips
Krista Blevins
Kevin Russo
Carina Holmes
Chloe Archer
2 5 4 3 6 7 1
5 1 6 2 3 4 7
3 1 5 6 4 2 7
3 6 1 4 5 7 2
3 2 7 6 4 5 1

5
Arjun Gallegos
Rosa Mclaughlin
Vance Payne
Janae Bass
Noe Woodard
5 4 3 1 2
4 5 3 2 1
2 4 5 1 3
5 1 4 2 3
2 5 4 3 1
4 2 1 3 5
4 5 3 1 2
2 3 1 5 4

9
Perla Pace
Carlos Larson
Sullivan Ball
Andy Gonzales
Patricia Lucas
Cruz Lynch
Heather Preston
Roselyn Hayden
Alonzo Hardin
8 6 1 4 7 5 2 9 3
6 7 5 1 8 4 2 9 3
3 6 1 4 8 2 9 5 7
8 4 6 5 1 9 2 7 3
2 9 7 8 6 5 3 1 4
3 4 2 5 9 6 7 1 8
3 5 9 7 6 1 2 4 8
7 2 5 9 8 3 6 4 1
3 2 8 5 1 4 7 9 6
8 2 5 6 4 7 9 3 1
2 1 5 4 7 9 3 8 6
3 2 9 7 5 8 1 6 4
9 4 5 1 7 8 6 2 3

5
Adelyn Whitney
Nathalie Graham
Donte Orr
Nia Odom
Michelle Parrish
1 5 4 3 2
1 3 5 2 4
2 5 3 4 1

3
Alexis Mathis
Yuliana Pruitt
Gina Wheeler
1 3 2
3 1 2
2 3 1
1 2 3
3 1 2
1 2 3
3 1 2

10
Magdalena Rivas
Jett Johnston
Zander Carr
Luka Park
Elaine Costa
Iris Jefferson
Clinton Rivers
Lisa Munoz
Joanna Schaefer
Celia Lyons
4 5 2 8 1 3 10 9 6 7
4 6 5 2 1 10 3 9 8 7
7 5 10 1 6 4 8 9 2 3
4 1 6 2 10 9 8 3 7 5
1 10 2 4 7 9 6 5 3 8
9 2 3 7 6 10 8 5 1 4
8 3 5 4 9 7 2 10 6 1
4 1 8 7 5 3 10 2 9 6
5 7 2 3 8 10 9 4 1 6

3
Omar Sanchez
Isai Nunez
Dennis Willis
2 1 3
1 2 3
2 1 3
2 1 3

7
Luis Rosales
Alivia Howard
Jazmyn Gallagher
Anderson Herring
Jair Chaney
Beatrice Weaver
Quinten Hart
1 2 6 4 3 7 5
6 2 3 4 5 7 1
1 6 5 2 7 4 3
3 2 6 4 5 1 7

1
Alanna Briggs
1
1
1
1
1
1
1
1
1
1
1
1

7
Alfred Adams
Anabella Dunlap
Logan Sanford
Zoe Harvey
Lydia Ward
Jasmine Hendricks
Isabel Christian
5 7 3 4 1 2 6
5 1 4 2 3 6 7
2 4 5 1 3 7 6

8
Jayvion Gay
Reed Padilla
Natasha Francis
Paula Romero
Diego Munoz
Natalie Nash
River Mcintyre
Natalia Schmitt
8 2 5 4 6 1 3 7

5
Immanuel Gallegos
Kenyon Wyatt
Isiah French
Neveah Barajas
Lisa Howard
2 4 5 3 1
4 5 1 2 3

7
Kailey Whitehead
Ignacio Medina
June Powell
Jaden Shah
Jairo Bradley
Jakobe Benjamin
Leila Robertson
5 7 4 2 6 1 3
1 4 5 2 7 6 3
1 5 3 7 6 2 4
5 1 2 4 7 6 3
1 7 4 2 3 6 5
3 5 2 7 6 1 4

6
Santos Nichols
Camron Blair
Jayce Cole
Heidi Potts
Kinley Mcdaniel
Wendy Suarez
5 1 6 2 4 3
4 3 5 1 2 6
1 2 3 6 5 4

10
Jamir Underwood
Ivy Cooke
Eduardo Newton
Aryan Graham
Cassie Fitzgerald
Ben Ruiz
Rory Ferguson
Sidney Kemp
Shane Goodwin
Grayson Moses
5 10 6 4 2 3 7 1 9 8

5
Emilia Santos
Grace Maxwell
Zayne Kim
Saige Travis
Kale Spears
5 2 1 3 4
1 4 2 3 5
5 2 4 3 1
5 2 3 1 4
4 3 1 5 2
3 2 1 5 4
1 2 5 3 4
2 3 5 4 1
3 1 2 4 5
3 1 4 2 5
3 1 2 5 4

3
Ali Cortez
Arabella Coleman
Anne Kaufman
3 2 1
3 2 1
1 3 2
1 2 3
3 1 2
1 2 3
3 1 2
1 2 3
2 3 1
3 2 1
1 3 2
1 2 3

9
Jordyn Davies
Owen Combs
Gilberto Soto
Harrison Hart
Aryana Rhodes
Jamal Briggs
Santos Hartman
Maleah Cruz
Anaya Hebert
1 9 8 3 7 6 2 4 5
1 3 9 4 6 5 8 7 2
1 9 6 3 2 8 7 5 4
8 9 4 7 6 2 1 3 5
3 4 7 1 5 9 8 2 6
7 2 1 4 8 6 3 5 9
4 8 7 5 3 9 6 1 2
1 5 6 8 2 7 4 3 9

6
Paige Curtis
Renee Santana
Davin Roman
Yuliana Myers
Elaine Acevedo
Tommy Frey
6 5 4 1 2 3
3 1 6 4 5 2
4 6 2 3 1 5
3 5 1 4 6 2
5 6 4 3 2 1
5 1 6 3 4 2
6 3 2 1 5 4
2 4 5 6 3 1
1 3 4 5 6 2
1 6 5 3 4 2
