21

3
LeBron James
Tiger Woods
Tom Brady
1 2 3
2 1 3
2 3 1
1 2 3
3 1 2

4
LeBron James
Tiger Woods
Tom Brady
Michael Phelps
4 1 2 3
4 2 1 3
4 2 3 1
4 1 2 3
4 3 1 2

3
LeBron James
Tiger Woods
Tom Brady
1 2 3
2 1 3
2 3 1
1 2 3
3 1 2
3 2 1
3 1 2
2 1 3
1 2 3
1 3 2

5
LeBron James
Tiger Woods
Tom Brady
Michael Phelps
Rodger Federer
1 2 3 4 5
2 3 4 5 1
2 1 4 5 3
3 1 4 5 2
3 1 4 5 2
1 2 3 4 5
4 3 2 1 5
4 1 2 3 5
5 1 2 3 4
5 2 1 3 4

5
LeBron James
Tiger Woods
Tom Brady
Michael Phelps
Rodger Federer
1 2 3 4 5
2 3 4 5 1
2 1 4 5 3
3 1 4 5 2
3 1 4 5 2
1 2 3 4 5
3 4 2 1 5
4 1 2 3 5

5
LeBron James
Tiger Woods
Tom Brady
Michael Phelps
Rodger Federer
1 2 3 4 5
2 3 4 5 1
2 1 4 5 3
3 1 4 5 2
3 1 4 5 2
1 2 3 4 5
3 4 2 1 5
4 1 2 3 5
1 2 4 5 3
1 2 3 4 5

3
Michael Jordan 
Barry Sanders
Usain Bolt
1 2 3
2 3 1
3 2 1
1 3 2
2 1 3
3 1 2

20
LeBron James
Tiger Woods
Tom Brady
Michael Phelps
Rodger Federer
Marlowe Johnson
Michael Jackson
Bo Jackson
Steph Curry
Luka Doncic
Lionel Messi
Harry Kane
Ben Miller
Babe Ruth
Russell Westbrook
Mike Tyson
Kobe Bryant
Muhammad Ali
Joe Montana
Barry Bonds
1 2 3 4 5 6 7 8 9 10 11 12 13 14 15 16 17 18 19 20
20 19 18 17 16 15 14 13 12 11 10 9 8 7 6 5 4 3 2 1
10 9 8 7 6 5 4 3 2 1 20 19 18 17 16 15 14 13 12 11
6 2 3 4 5 1 7 8 9 10 11 12 13 14 15 16 17 18 19 20
6 19 18 17 16 15 14 13 12 11 10 9 8 7 20 5 4 3 2 1
6 9 8 7 10 5 4 3 2 1 20 19 18 17 16 15 14 13 12 11

6
Tiger Woods
Mike Tyson
Kobe Bryant
Muhammad Ali
Joe Montana
Barry Bonds
1 2 3 4 5 6
6 1 2 3 4 5
6 2 3 4 5 1
2 6 3 4 5 1
1 3 2 4 5 6

3
Mike Tyson
Kobe Bryant
Muhammad Ali
1 2 3
1 2 3
1 2 3
1 3 2
2 3 1
2 1 3
2 3 1
2 1 3
3 1 2
3 1 2
3 2 1

5
Tom Brady
Michael Phelps
Rodger Federer
Marlowe Johnson
Michael Jackson
2 3 1 4 5
3 2 1 5 4
2 3 1 4 5
2 1 3 5 4
4 1 2 3 5
5 1 4 3 2

12
Steph Curry
Luka Doncic
Lionel Messi
Harry Kane
Ben Miller
Babe Ruth
Tiger Woods
Mike Tyson
Kobe Bryant
Muhammad Ali
Joe Montana
Barry Bonds
1 2 3 4 5 6 7 8 9 10 11 12
1 2 3 4 5 6 7 8 9 10 11 12
2 3 4 5 6 7 1 8 9 10 12 11
4 5 10 9 8 7 6 3 2 1 11 12
12 11 3 6 7 8 10 5 4 2 1 9
12 11 10 9 8 7 6 5 4 3 2 1
4 12 11 10 1 2 3 8 7 9 5 6

4
Muhammad Ali
Joe Montana
Barry Bonds
Lionel Messi
4 2 3 1
3 4 1 2
2 3 1 4
4 2 1 3
1 2 3 4
1 3 2 4
4 2 3 1
2 1 4 3
3 2 4 1
3 2 1 4

4
AAAA AAAA
BBBB BBBB
CCCC CCCC
DDDD DDDD
2 3 4 1
2 4 3 1
2 1 3 4
1 2 3 4

3
EEEE EEEE
FFFF FFFF
GGGG GGGG
2 1 3
1 2 3
1 3 2

4
HHHH HHHH
IIII IIII
JJJJ JJJJ
KKKK KKKK
1 2 3 4
2 1 3 4
3 4 1 2
3 2 1 4
2 1 3 4

3
LLLL LLLL
MMMM MMMM 
NNNN NNNN
1 2 3
1 3 2
2 1 3
2 3 1
3 1 2
3 2 1

3
OOOO OOOO
PPPP PPPP
QQQQ QQQQ
1 2 3
2 1 3
2 1 3
1 2 3
3 1 2

4
RRRR RRRR
SSSS SSSS
TTTT TTTT
UUUU UUUU
4 1 2 3
4 2 1 3
3 4 1 2
3 2 1 4
1 2 3 4

5
VVVV VVVV
WWWW WWWW
XXXX XXXX
YYYY YYYY
ZZZZ ZZZZ
1 2 3 4 5
3 4 2 1 5
5 3 4 2 1
4 3 2 5 1
1 3 2 4 5
5 2 1 4 3

4
LeBron James
Tiger Woods
Tom Brady
Michael Phelps
1 2 3 4
2 1 4 3
4 2 1 3
3 2 1 4
