20

4
Dbhknc fyuwp
Elanezpnqz gkmykr
Gfhvbsy wza
Ykyic pkrzzfft
1 3 4 2
2 1 4 3
3 1 2 4
4 3 1 2
3 2 4 1

6
Ftpq skbbcb
Jhf qwbgc
Dymgnzqcvw avqq
Izxwxrylh ikqoud
Hbobpefiv ivh
R th
2 4 3 5 1 6

3
Nvbukebr njocb
Vpvrxopbbi xmbbdkblge
Xmpt woczowywsr
2 1 3
1 2 3

1
Q gzhsakub
1
1
1
1
1

7
Bt as
Qqdpug dyim
Xdxn ahkowfnyu
Ix uqxj
Ooo hjibydf
Trnsuhbpo ygqpezm
Lyrt jddaujo
1 6 7 5 3 4 2
3 5 7 2 1 4 6

2
Jab dnhlwjy
Zqaw dpm
2 1
1 2
2 1

3
Lsvbnsfve wdsja
N fhgku
Qaokyrm b
3 1 2

6
Fglcysz itngl
Detsfwjr tdcgwkypc
Q tdudpxr
Efxiqnr dmfbszoj
C kucst
Lhpmpfauww odeaio
2 6 4 3 5 1
3 2 4 6 1 5
2 3 5 6 1 4
5 4 1 3 6 2

9
Do oxcczpep
Eypnnzjwmo k
Hja d
F qqehhnbtx
Eietrjil sezecy
Bsbgs xvv
Rswgi oswwnjgtqz
Xcdy amuzdml
J ulimbr
5 1 9 6 8 3 7 2 4
2 1 6 7 9 8 4 3 5
1 8 2 5 7 3 6 4 9
7 5 2 8 3 1 4 6 9
4 8 2 1 9 5 3 6 7
1 9 5 3 8 7 4 6 2

3
Keo pokiahvxoc
Ksmf xbfvnur
A vdrln
2 3 1
3 1 2
1 2 3
1 2 3
3 1 2
2 1 3
2 1 3
1 3 2
3 2 1

5
Wmr axwza
Zcrzozungd afkt
Brprf wunoshm
Ri vphrb
Eiaop xjwtptxyf
3 4 1 2 5
1 2 4 3 5
3 1 2 5 4

9
Audkmoclq rj
Nmkya llhtj
Xa tl
I counqa
Mqsfgvs iflextscjy
If d
Jq ssxockz
Vyew qgcqkkl
Ax ivzmwd
1 3 6 9 7 4 8 5 2
9 8 5 3 7 6 4 2 1
9 7 2 5 4 8 3 6 1
4 7 3 1 9 5 2 6 8
2 9 3 5 7 6 8 4 1
1 3 5 7 4 2 9 6 8
1 7 4 6 3 2 8 5 9
3 9 7 5 2 6 4 8 1

1
Vgzcvk yawa
1
1
1

4
Crmv xsl
V sw
Blcxqf frlay
Ubttnugev tpsufaldm
1 3 2 4
2 3 4 1
4 1 3 2
4 3 1 2
4 2 3 1
4 2 1 3
1 3 4 2
2 3 1 4
3 4 1 2
4 3 1 2

4
K jjp
Msqmyw wdzcsogfx
Ozxj mr
Kmir jvivjbiam
1 3 4 2
2 1 4 3
2 4 3 1
4 2 1 3
4 3 1 2

10
Ncnmbnc fstrvr
Fw ivuinsqfxp
L jjhmpkatbp
Hrmcsefa csu
Z ykgun
Rqjhirtbuz znx
Fcc nl
Y pwwfhuk
Np fa
Kenvvwjhfb xpfuvggsz
8 1 4 6 3 5 2 7 9 10

9
Nwigrmf ldp
Ubs bugrcnsl
Kbgvumel wdajvr
Jmg ywbfpol
Auunaz dgwijhlk
Fdifbedm axsjqa
Jgn mlchnrcpzp
X obtpkaqsn
Rbyame jrgrd
3 7 9 6 8 5 4 1 2
4 1 3 7 5 2 6 9 8
1 6 4 7 9 8 3 5 2

9
Nuaddblpyd bw
Harhob btrcgytl
Ixihdcnv uci
Xclqwyv cpleuslhgt
Gyxlpssseo jvmdwdsg
Erqzvxhwjx mzawq
Piigwug zsjebf
A besuqwlp
Iiftdagvgi phlvtcc
8 9 3 6 2 1 5 7 4
3 7 2 9 8 5 4 1 6
1 8 5 4 6 2 9 3 7
9 3 4 8 1 7 2 6 5
2 5 4 9 7 6 3 8 1
5 6 7 4 3 9 8 1 2
5 6 3 8 9 2 4 7 1
2 5 3 9 7 1 8 6 4
6 7 8 9 2 5 4 3 1
1 5 9 3 7 4 6 2 8

7
Uhyms ahsrpfhxi
Mmqua f
Bsswgxzzf jwbpyirjc
Rxe dhwgxvd
Xcpzhstmzj owzwqgbd
Ntuhl nanjm
Acb mtsbzz
2 7 5 4 3 6 1
4 1 7 2 5 6 3
5 1 6 2 7 3 4
5 4 3 6 1 7 2
3 5 1 2 7 4 6
5 4 3 6 1 2 7
5 6 7 2 3 1 4

8
R ueyyvfn
Drfdtkgg gzth
Ki rezqlkt
Egzwaei zib
Hnv sel
Bdvomsll hmihkfrma
Sqfnuhvri lkkbyft
Anjqp oshigqo
1 3 6 7 4 2 8 5
