20

1
EG Jojophun
1

2
EG Jojophun
EG FBI
2 1
1 2

2
EG Jojophun
EG FBI
1 2
2 1

3
EG Jojophun
EG FBI
EG Inspired
2 1 3
2 1 3
2 1 3
2 1 3
2 1 3

3
EG Jojophun
EG FBI
EG Inspired
1 2 3
1 2 3
1 2 3
1 2 3
1 2 3
2 1 3
3 1 2
3 2 1

4
EG Jojophun
EG FBI
EG Inspired
EG Sumday
3 2 4 1
3 2 4 1
3 2 4 1
3 2 4 1
3 2 4 1
3 2 4 1
3 2 1 4
3 2 4 1

4
EG Jojophun
EG FBI
EG Inspired
EG Sumday
3 1 4 2
2 1 4 3
2 4 1 3
2 4 3 1
3 2 4 1
3 4 1 2

2
100T Doublelift
100T Bjergsen
1 2
1 2
1 2
2 1
2 1

7
EG Jojophun
EG FBI
EG Inspired
EG Sumday
EG Vulcan
100T Doublelift
100T Bjergsen
1 2 3 4 5 6 7
4 5 7 1 2 6 3

9
EG Jojophun
EG FBI
EG Inspired
EG Sumday
EG Vulcan
100T Doublelift
100T Bjergsen
100T Busio
100T Closer
1 3 7 2 5 6 9 8 4
1 6 2 9 3 5 8 4 7
8 3 7 5 2 1 9 6 4
5 3 9 7 6 2 8 1 4

12
EG Jojophun
EG FBI
EG Inspired
EG Sumday
EG Vulcan
100T Doublelift
100T Bjergsen
100T Busio
100T Closer
100T Tenacity
FLY Prince 
FLY Vicla
12 10 6 2 11 7 4 3 9 8 1 5
5 4 12 3 11 6 7 9 8 10 1 2
7 3 4 2 6 8 12 1 10 5 9 11
7 9 8 5 11 6 1 10 2 12 3 4

8
EG Jojophun
EG FBI
EG Inspired
EG Sumday
EG Vulcan
100T Doublelift
100T Bjergsen
100T Busio
3 5 2 8 7 6 4 1
4 6 1 8 7 3 5 2
2 6 8 4 1 3 5 7
8 3 4 6 5 7 2 1
3 8 5 1 2 6 7 4
4 8 7 3 6 1 2 5
7 3 4 8 2 5 1 6
6 4 8 7 5 2 3 1
7 5 1 4 3 8 2 6
7 2 6 1 5 8 4 3
8 6 3 5 1 4 7 2
1 2 4 8 3 7 6 5
8 7 1 4 6 2 5 3
8 5 4 3 2 6 1 7

12
EG Jojophun
EG FBI
EG Inspired
EG Sumday
EG Vulcan
100T Doublelift
100T Bjergsen
100T Busio
100T Closer
100T Tenacity
FLY Prince 
FLY Vicla
2 1 4 6 10 7 5 8 9 3 11 12
4 12 9 7 3 5 10 2 1 6 8 11
3 7 11 8 1 2 9 12 6 4 5 10

6
EG Jojophun
EG FBI
EG Inspired
EG Sumday
EG Vulcan
100T Doublelift
2 3 6 5 4 1
4 6 3 1 5 2
5 4 2 6 1 3
4 5 2 1 6 3
4 3 5 1 6 2

5
EG Jojophun
EG FBI
EG Inspired
EG Sumday
EG Vulcan
3 2 5 4 1
4 1 2 5 3
3 1 4 5 2
2 5 4 1 3
3 5 4 2 1
5 3 4 2 1
4 1 2 5 3

8
EG Jojophun
EG FBI
EG Inspired
EG Sumday
EG Vulcan
100T Doublelift
100T Bjergsen
100T Busio
2 1 7 3 4 6 8 5
5 2 1 7 4 6 8 3
2 7 5 8 6 3 4 1
3 7 6 1 8 5 4 2
3 8 1 2 5 6 7 4

9
EG Jojophun
EG FBI
EG Inspired
EG Sumday
EG Vulcan
100T Doublelift
100T Bjergsen
100T Busio
100T Closer
4 7 5 3 2 8 6 1 9
7 8 3 4 5 9 6 2 1
8 3 4 2 6 7 9 1 5
8 9 6 4 7 3 1 2 5
3 1 9 2 8 4 5 7 6
2 7 9 8 6 1 3 5 4
1 3 6 8 4 5 2 7 9
5 6 7 1 8 2 9 3 4
2 1 8 7 5 4 3 6 9
2 7 1 9 5 6 4 8 3

8
EG Jojophun
EG FBI
EG Inspired
EG Sumday
EG Vulcan
100T Doublelift
100T Bjergsen
100T Busio
3 1 8 6 5 7 2 4

7
EG Jojophun
EG FBI
EG Inspired
EG Sumday
EG Vulcan
100T Doublelift
100T Bjergsen
3 7 5 4 1 2 6
7 4 2 1 3 6 5
7 4 3 6 5 2 1
4 2 6 5 3 7 1

8
EG Jojophun
EG FBI
EG Inspired
EG Sumday
EG Vulcan
100T Doublelift
100T Bjergsen
100T Busio
2 3 5 4 8 7 1 6
2 1 7 4 5 8 3 6
1 6 4 5 8 7 3 2
5 1 4 3 6 2 8 7
